34.89        33.270833    @%21%     @:14:     @;25/25/25;     Tírusz                   @%% @:: @;;
35.10        33.560985    @%21%     @:14:     @;25/25/25;     Szidón                   @%% @:: @;;
35.60        31.88        @%21%     @:14:     @;25/25/25;     Jeruzsálem               @%% @:: @;;

35.1         31.58        @%21%     @:16:     @;160/160/160;  Júda                     @%% @:: @;;
31.4         30           @%21%     @:20:     @;160/160/160;  Egyiptom                 @%% @:: @;;
35.4         30.8         @%21%     @:20:     @;160/160/160;  Edóm                     @%% @:: @;;
32.41        33.08        @%21%     @:20:     @;160/160/160;  (Földközi-tenger)        @%% @:: @;;
