34.545833    31.663889    #Ashkelon Askelón
35.207639    31.704306    #Bethlehem Betlehem
35.102220    31.525087    #Hebron Hebrón
36.306390    33.511112    #Damascus Damaszkusz
35.234167    31.776667    #Jerusalem Jeruzsálem
35.196111    33.270833    #Tyre Tírusz
35.371944    33.560985    #Sidon Szidón
35.934300    31.954700    #Rabbah Rabba
35.652000    33.249000    #Dan Dán
