28.2         37.95        @%21%     @:12:     @;25/25/25;     Ephesus                  @%% @:: @;;

22.1         37.2         @%21%     @:12:     @;160/160/160;  Achaia                   @%% @:: @;;
28.5         38.9         @%21%     @:12:     @;160/160/160;  Asia                     @%% @:: @;;
31.9         39.2         @%21%     @:12:     @;160/160/160;  Galatia                  @%% @:: @;;
29.41        35.18        @%21%     @:16:     @;160/160/160;  (Mediterranean Sea)      @%% @:: @;;
