35.281944    32.213611    #Sikem Shechem
35.652000    33.249000    #Dán Dan
35.234167    31.776667    #Jeruzsálem Jerusalem
35.371944    33.560985    #Szidón Sidon
35.219122    32.521526    #Taanak Taanach
35.102220	 31.525087    #Hebrón Hebron
35.196111    33.270833    #Tírusz Tyre
35.083611    31.895000    #Alsó Bét-Hórón Lower Beth-horon
36.306390    33.511112    #Damaszkusz Damascus
35.444564    31.871719    #Jerikó Jericho
35.210480    31.632470    #Tekoa Tekóa
35.934300    31.954700    #Rabbah Rabba
35.795480    31.716107    #Médebá Medeba
35.207639    31.704306    #Betlehem Bethlehem
35.114167    31.885833    #Felső-Bét-Hórón  Upper Beth-horon
35.016111    31.352500    #Jeter Jattir
35.108266    32.664099    #Jokmeám Jokneam
