35.22        31.81        @%21%     @:12:     @;25/25/25;     Jeruzsálem               @%% @:: @;;
35.30        32.795       @%21%     @:12:     @;25/25/25;     Kána?                    @%% @:: @;;
35.3         32.68        @%21%     @:12:     @;25/25/25;     Názáret                  @%% @:: @;;
35.432222    31.885       @%21%     @:12:     @;25/25/25;     Jerikó                   @%% @:: @;;
35.36        31.764389    @%21%     @:12:     @;25/25/25;     Betánia?                 @%% @:: @;;
35.2         31.675       @%21%     @:12:     @;25/25/25;     Betlehem                 @%% @:: @;;
35.44        32.90        @%21%     @:12:     @;25/25/25;     Kapernaum?               @%% @:: @;;
35.688611    32.63        @%21%     @:12:     @;25/25/25;     Gadara                   @%% @:: @;;
35.35        32.603333    @%21%     @:12:     @;25/25/25;     Nain                     @%% @:: @;;
35.46        32.753333    @%21%     @:12:     @;25/25/25;     Tibériás                 @%% @:: @;;

35.575       32.831111    @%21%     @:12:     @;160/160/160;  Galileai                 @%% @:: @;;
35.615       32.781111    @%21%     @:12:     @;160/160/160;  tenger                   @%% @:: @;;
