42.4         36.359444    @%21%     @:12:     @;25/25/25;     Nineveh                  @%% @:: @;;
34.66        31.9         @%21%     @:12:     @;25/25/25;     Joppa                    @%% @:: @;;

32.61        33.48        @%21%     @:16:     @;160/160/160;  (Mediterranean Sea)      @%% @:: @;;
