35.23        31.73        @%21%     @:12:     @;25/25/25;     Jeruzsálem               @%% @:: @;;
34.97        32.58        @%21%     @:12:     @;25/25/25;     Megiddó                  @%% @:: @;;
35.52        32.62        @%21%     @:12:     @;25/25/25;     Súném                    @%% @:: @;;
36.306390    33.47        @%21%     @:12:     @;25/25/25;     Damaszkusz               @%% @:: @;;
34.99        32.29        @%21%     @:12:     @;25/25/25;     Samária                  @%% @:: @;;
35.60        31.88        @%21%     @:12:     @;25/25/25;     Jerikó                   @%% @:: @;;
34.849167    31.51        @%21%     @:12:     @;25/25/25;     Lákis                    @%% @:: @;;

35.2         32.71        @%21%     @:14:     @;160/160/160;  Galilea                  @%% @:: @;;
34.3         33.02        @%21%     @:16:     @;160/160/160;  (Földközi-tenger)        @%% @:: @;;
