26.95        37.1         @%21%     @:12:     @;25/25/25;     Patmos                   @%% @:: @;;
36.15        31.78        @%21%     @:12:     @;25/25/25;     Jerusalem                @%% @:: @;;
27.348611    37.78        @%21%     @:12:     @;25/25/25;     Ephesus                  @%% @:: @;;
27.14226     38.28        @%21%     @:12:     @;25/25/25;     Smyrna                   @%% @:: @;;
27.183333    39.34        @%21%     @:12:     @;25/25/25;     Pergamum                 @%% @:: @;;
28.56        38.92        @%21%     @:12:     @;25/25/25;     Thyatira                 @%% @:: @;;
28.65        38.6         @%21%     @:12:     @;25/25/25;     Sardis                   @%% @:: @;;
29.65        38.3         @%21%     @:12:     @;25/25/25;     Philadelphia             @%% @:: @;;
29.1075      37.65        @%21%     @:12:     @;25/25/25;     Laodicea                 @%% @:: @;;

31           30.5         @%21%     @:20:     @;160/160/160;  Egypt                    @%% @:: @;;
38.7         35.5         @%21%     @:12:     @;160/160/160;  Euphrates                @%% @:: @;;
30.25        33.38        @%21%     @:20:     @;160/160/160;  (Mediterranean Sea)      @%% @:: @;;
