34.9         31.5         @%21%     @:36:     @;160/160/160;  Júda                     @%% @:: @;;
36.1         33.9         @%21%     @:26:     @;160/160/160;  Libánon                  @%% @:: @;;
35.5         28.8         @%21%     @:36:     @;160/160/160;  Midján                   @%% @:: @;;
33.88        32.99        @%4%      @:20:     @;160/160/160;  (Földközi-tenger)        @%% @:: @;;
