35.23        31.73        @%21%     @:12:     @;25/25/25;     Jerusalem                @%% @:: @;;
34.97        32.58        @%21%     @:12:     @;25/25/25;     Megiddo                  @%% @:: @;;
35.54        32.62        @%21%     @:12:     @;25/25/25;     Shunem                   @%% @:: @;;
36.306390    33.47        @%21%     @:12:     @;25/25/25;     Damascus                 @%% @:: @;;
34.99        32.29        @%21%     @:12:     @;25/25/25;     Samaria                  @%% @:: @;;
35.61        31.88        @%21%     @:12:     @;25/25/25;     Jericho                  @%% @:: @;;
34.849167    31.51        @%21%     @:12:     @;25/25/25;     Lachish                  @%% @:: @;;

35.2         32.71        @%21%     @:14:     @;160/160/160;  Galilee                  @%% @:: @;;
34.3         33.02        @%21%     @:16:     @;160/160/160;  (Mediterranean Sea)      @%% @:: @;;
