35.934300    31.954700    #Rabbah Rabbá
35.196111    33.270833    #Tyre Tírusz
35.371944    33.560985    #Sidon Szidón
36.306390    33.511112    #Damascus Damaszkusz
32.610278    25.720556    #Thebes Nó
31.253000    29.848800    #Memphis Nóf
32.171389    30.860556    #Tahpanhes Tahpanhész
44.422222    32.543333    #Babylon Babilon
35.776574    31.502236    #Dibon Díbón
