35.95        31.95        @%21%     @:12:     @;25/25/25;     Jerusalem                @%% @:: @;;

31           30           @%21%     @:24:     @;160/160/160;  Egypt                    @%% @:: @;;
35.2         30.7         @%21%     @:14:     @;160/160/160;  Land of Uz?              @%% @:: @;;
34.91        31.4         @%21%     @:16:     @;160/160/160;  Judah                    @%% @:: @;;
31.91        33.68        @%21%     @:16:     @;160/160/160;  (Mediterranean Sea)      @%% @:: @;;
39.7         36.3         @%21%     @:16:     @;160/160/160;  Assyria                  @%% @:: @;;
