12.482778    42.4         @%21%     @:12:     @;25/25/25;     Rome                     @%% @:: @;;
32.53        31.776667    @%21%     @:12:     @;25/25/25;     Jerusalem                @%% @:: @;;
25.8         38           @%21%     @:12:     @;25/25/25;     Cenchreae                @%% @:: @;;

22.1         39.2         @%21%     @:12:     @;160/160/160;  Achaia                   @%% @:: @;;
-4.5         40.3         @%21%     @:12:     @;160/160/160;  S P A I N                @%% @:: @;;
19.91        34.48        @%21%     @:13:     @;160/160/160;  (Mediterranean Sea)      @%% @:: @;;
