34.9         31.5         @%21%     @:16:     @;160/160/160;  Júda                     @%% @:: @;;
35.1         32.4         @%21%     @:16:     @;160/160/160;  Izráel                   @%% @:: @;;
31.4         30           @%21%     @:20:     @;160/160/160;  Egyiptom                 @%% @:: @;;
32.41        33.48        @%21%     @:19:     @;160/160/160;  (Földközi-tenger)        @%% @:: @;;
39.7         36.3         @%21%     @:16:     @;160/160/160;  Asszíria                 @%% @:: @;;
36.1         33.9         @%21%     @:16:     @;160/160/160;  Libánon                  @%% @:: @;;
