35.81        31.87        @%21%     @:12:     @;25/25/25;     Jeruzsálem               @%% @:: @;;
34.1         31.68        @%21%     @:12:     @;25/25/25;     Askelón                  @%% @:: @;;
34.1         31.44        @%21%     @:12:     @;25/25/25;     Gáza                     @%% @:: @;;
34.3         31.92        @%21%     @:12:     @;25/25/25;     Asdód                    @%% @:: @;;
34.96        31.89        @%21%     @:10:     @;25/25/25;     Ekrón                    @%% @:: @;;
42.8         36.359444    @%21%     @:12:     @;25/25/25;     Ninive                   @%% @:: @;;

34.9         31.5         @%21%     @:13:     @;160/160/160;  Júda                     @%% @:: @;;
35.95        31.44        @%21%     @:13:     @;160/160/160;  Moáb                     @%% @:: @;;
36.3         32.11        @%21%     @:13:     @;160/160/160;  Ammón                    @%% @:: @;;
39.7         36.3         @%21%     @:16:     @;160/160/160;  Asszíria                 @%% @:: @;;
34.7         34.5         @%21%     @:14:     @;160/160/160;  (Földközi-tenger)        @%% @:: @;;
