35.2         31.9         @%21%     @:12:     @;25/25/25;     Jeruzsálem               @%% @:: @;;

31.6         30           @%21%     @:16:     @;160/160/160;  Egyiptom                 @%% @:: @;;
35.1         31.6         @%21%     @:16:     @;160/160/160;  Júda                     @%% @:: @;;
32.91        32.25        @%21%     @:19:     @;160/160/160;  (Földközi-tenger)        @%% @:: @;;
