22           38.33        @%21%     @:12:     @;25/25/25;     Korinthus                @%% @:: @;;
36.15        33.99        @%21%     @:12:     @;25/25/25;     Damaszkusz               @%% @:: @;;
27.18        39.85        @%21%     @:12:     @;25/25/25;     Tróász                   @%% @:: @;;

22.1         37.2         @%21%     @:12:     @;160/160/160;  Akhája                   @%% @:: @;;
19.41        34.48        @%21%     @:16:     @;160/160/160;  (Földközi-tenger)        @%% @:: @;;
