34.98        31.54        @%21%     @:12:     @;25/25/25;     Hebron                   @%% @:: @;;
35.776574    31.55        @%21%     @:12:     @;25/25/25;     Dibon Gad                @%% @:: @;;
35.444564    31.91        @%21%     @:12:     @;25/25/25;     Jericho                  @%% @:: @;;
35.795480    31.76        @%21%     @:12:     @;25/25/25;     Medeba                   @%% @:: @;;

34.34        32.56        @%4%      @:24:     @;160/160/160;  Great Sea                @%% @:: @;;
34.34        32.41        @%4%      @:18:     @;160/160/160;  (Mediterranean Sea)      @%% @:: @;;
35.73        31.39        @%21%     @:14:     @;160/160/160;  Arnon                    @%% @:: @;;
35.575       32.831111    @%21%     @:12:     @;160/160/160;  Sea of                   @%% @:: @;;
35.615       32.781111    @%21%     @:12:     @;160/160/160;  Galilee                  @%% @:: @;;
