35.2         31.67        @%21%     @:12:     @;25/25/25;     Betlehem                 @%% @:: @;;
35.75        31.44        @%21%     @:24:     @;160/160/160;  MÓÁB                     @%% @:: @;;
34.31        31.88        @%21%     @:20:     @;160/160/160;  (Földközi-tenger)        @%% @:: @;;
