24.95        41.4         @%21%     @:12:     @;25/25/25;     Filippi                  @%% @:: @;;
25           40.45        @%21%     @:12:     @;25/25/25;     Thesszalonika            @%% @:: @;;
24.3         38.3         @%21%     @:12:     @;25/25/25;     Athén                    @%% @:: @;;

22.1         37.2         @%21%     @:12:     @;160/160/160;  Akhája                   @%% @:: @;;
25           33.98        @%21%     @:16:     @;160/160/160;  (Földközi-tenger)        @%% @:: @;;
34.95        31.55        @%21%     @:10:     @;160/160/160;  Júdea                    @%% @:: @;;
